…
## Problem 1

Reading Mr. Trash Wheel dataset.

``` r
mr_trash_wheel_df = 
  read_excel("data/Trash-Wheel-Collection-Totals-8-6-19.xlsx", sheet = "Mr. Trash Wheel", range = "A2:N408") %>% 
  janitor::clean_names() %>% 
  drop_na(dumpster) %>% 
  mutate(sports_balls = round(sports_balls)) 

mr_trash_wheel_df
```

    ## # A tibble: 344 x 14
    ##    dumpster month  year date                weight_tons volume_cubic_yards
    ##       <dbl> <chr> <dbl> <dttm>                    <dbl>              <dbl>
    ##  1        1 May    2014 2014-05-16 00:00:00        4.31                 18
    ##  2        2 May    2014 2014-05-16 00:00:00        2.74                 13
    ##  3        3 May    2014 2014-05-16 00:00:00        3.45                 15
    ##  4        4 May    2014 2014-05-17 00:00:00        3.1                  15
    ##  5        5 May    2014 2014-05-17 00:00:00        4.06                 18
    ##  6        6 May    2014 2014-05-20 00:00:00        2.71                 13
    ##  7        7 May    2014 2014-05-21 00:00:00        1.91                  8
    ##  8        8 May    2014 2014-05-28 00:00:00        3.7                  16
    ##  9        9 June   2014 2014-06-05 00:00:00        2.52                 14
    ## 10       10 June   2014 2014-06-11 00:00:00        3.76                 18
    ## # ... with 334 more rows, and 8 more variables: plastic_bottles <dbl>,
    ## #   polystyrene <dbl>, cigarette_butts <dbl>, glass_bottles <dbl>,
    ## #   grocery_bags <dbl>, chip_bags <dbl>, sports_balls <dbl>,
    ## #   homes_powered <dbl>
…
pre_19_df = 
  read_excel("data/Trash-Wheel-Collection-Totals-8-6-19.xlsx", sheet = "2019 Precipitation", range = "A2:B14") %>% 
  janitor::clean_names() %>% 
  mutate(year = 2019) %>% 
  relocate(year)

precipitation_df = 
  bind_rows(pre_18_df, pre_19_df) %>% 
  mutate(month = rep(month.name, 2))

precipitation_df
```

    ## # A tibble: 24 x 3
    ##     year month     total
    ##    <dbl> <chr>     <dbl>
    ##  1  2018 January    0.94
    ##  2  2018 February   4.8 
    ##  3  2018 March      2.69
    ##  4  2018 April      4.69
    ##  5  2018 May        9.27
    ##  6  2018 June       4.77
    ##  7  2018 July      10.2 
    ##  8  2018 August     6.45
    ##  9  2018 September 10.5 
    ## 10  2018 October    2.12
    ## # ... with 14 more rows
